{
    "version": "1.0",
    "project": "exotel-web-services",
    "environment": "local",
    "uplaod_url": "https://s3.ap-south-1.amazonaws.com/godaddy-exotel/",
    "mysql": {
        "host": "localhost",
        "port": 3306,
        "database": "exotel",
        "username": "root",
        "password": "",
        "dialect": "mysql",
        "pool": {
            "min": 0,
            "max": 10,
            "idle": 1000
        }
    },
    "email": {
        "from": "sttarter.sdk@gmail.com",
        "username": "sttarter.sdk@gmail.com",
        "password": "Spur2Win",
        "service":"Gmail"
    }
}